<svg xmlns="http://www.w3.org/2000/svg" width="24" height="24" viewBox="0 0 24 24">
    <g fill="none" fill-rule="evenodd">
        <path fill="#8DBDF3" d="M18 15v-2H6v2H4v-4c0-.55.45-1 1-1h14c.55 0 1 .45 1 1v4h-2zM8 19h8v-4H8v4zM8 8h8V5H8v3zm11 0h-1V3H6v5H5c-1.66 0-3 1.34-3 3v6h4v4h12v-4h4v-6c0-1.66-1.34-3-3-3z"/>
        <path d="M0 0h24v24H0z"/>
    </g>
</svg>
